\relax 
\providecommand{\transparent@use}[1]{}
\providecommand\hyper@newdestlabel[2]{}
\providecommand\HyperFirstAtBeginDocument{\AtBeginDocument}
\HyperFirstAtBeginDocument{\ifx\hyper@anchor\@undefined
\global\let\oldcontentsline\contentsline
\gdef\contentsline#1#2#3#4{\oldcontentsline{#1}{#2}{#3}}
\global\let\oldnewlabel\newlabel
\gdef\newlabel#1#2{\newlabelxx{#1}#2}
\gdef\newlabelxx#1#2#3#4#5#6{\oldnewlabel{#1}{{#2}{#3}}}
\AtEndDocument{\ifx\hyper@anchor\@undefined
\let\contentsline\oldcontentsline
\let\newlabel\oldnewlabel
\fi}
\fi}
\global\let\hyper@last\relax 
\gdef\HyperFirstAtBeginDocument#1{#1}
\providecommand\HyField@AuxAddToFields[1]{}
\providecommand\HyField@AuxAddToCoFields[2]{}
\citation{Durgin2002}
\citation{Durgin2002}
\citation{Rao2015}
\citation{Frolik2007}
\citation{Lopez2016}
\citation{Durgin2002}
\citation{Durgin2002}
\citation{Rao2015}
\citation{Durgin2002}
\citation{Lopez2016}
\citation{Abdi2001,Greenstein1999}
\citation{Lopez2016}
\citation{Lopez2016}
\select@language{english}
\@writefile{toc}{\select@language{english}}
\@writefile{lof}{\select@language{english}}
\@writefile{lot}{\select@language{english}}
\@writefile{toc}{\contentsline {section}{\numberline {I}Introduction}{1}{section.1}}
\@writefile{toc}{\contentsline {section}{\numberline {II}TWDP Fading Model}{1}{section.2}}
\newlabel{eq:cplxbbv}{{1}{1}{TWDP Fading Model}{equation.2.1}{}}
\newlabel{eq:momdef}{{5}{1}{TWDP Fading Model}{equation.2.5}{}}
\@writefile{toc}{\contentsline {section}{\numberline {III}Simultaneous Parameter Estimation}{1}{section.3}}
\newlabel{eq:m2}{{6}{1}{Simultaneous Parameter Estimation}{equation.3.6}{}}
\newlabel{eq:m4}{{7}{1}{Simultaneous Parameter Estimation}{equation.3.7}{}}
\newlabel{eq:m6}{{8}{1}{Simultaneous Parameter Estimation}{equation.3.8}{}}
\citation{Lopez2016}
\newlabel{eq:lopezf4}{{9}{2}{Simultaneous Parameter Estimation}{equation.3.9}{}}
\newlabel{eq:lopezf6}{{10}{2}{Simultaneous Parameter Estimation}{equation.3.10}{}}
\newlabel{eq:samplef}{{11}{2}{Simultaneous Parameter Estimation}{equation.3.11}{}}
\newlabel{eq:simulteq1}{{12}{2}{Simultaneous Parameter Estimation}{equation.3.12}{}}
\newlabel{eq:simulteq2}{{13}{2}{Simultaneous Parameter Estimation}{equation.3.13}{}}
\@writefile{toc}{\contentsline {section}{\numberline {IV}A Solution for a Moment-based Estimator}{2}{section.4}}
\newlabel{eq:factors}{{19}{2}{A Solution for a Moment-based Estimator}{equation.4.19}{}}
\@writefile{toc}{\contentsline {section}{\numberline {V}Estimator Performance}{2}{section.5}}
\@writefile{toc}{\contentsline {subsection}{\numberline {\unhbox \voidb@x \hbox {V-A}}Estimation Variance and Bias}{2}{subsection.5.1}}
\providecommand*\caption@xref[2]{\@setref\relax\@undefined{#1}}
\newlabel{fig:guille1000}{{1a}{3}{Subfigure 1a}{subfigure.1.1}{}}
\newlabel{sub@fig:guille1000}{{(a)}{a}{Subfigure 1a\relax }{subfigure.1.1}{}}
\newlabel{fig:guille10000}{{1b}{3}{Subfigure 1b}{subfigure.1.2}{}}
\newlabel{sub@fig:guille10000}{{(b)}{b}{Subfigure 1b\relax }{subfigure.1.2}{}}
\newlabel{fig:guille100000}{{1c}{3}{Subfigure 1c}{subfigure.1.3}{}}
\newlabel{sub@fig:guille100000}{{(c)}{c}{Subfigure 1c\relax }{subfigure.1.3}{}}
\newlabel{fig:lopez1000}{{1d}{3}{Subfigure 1d}{subfigure.1.4}{}}
\newlabel{sub@fig:lopez1000}{{(d)}{d}{Subfigure 1d\relax }{subfigure.1.4}{}}
\newlabel{fig:lopez10000}{{1e}{3}{Subfigure 1e}{subfigure.1.5}{}}
\newlabel{sub@fig:lopez10000}{{(e)}{e}{Subfigure 1e\relax }{subfigure.1.5}{}}
\newlabel{fig:lopez100000}{{1f}{3}{Subfigure 1f}{subfigure.1.6}{}}
\newlabel{sub@fig:lopez100000}{{(f)}{f}{Subfigure 1f\relax }{subfigure.1.6}{}}
\@writefile{lof}{\contentsline {figure}{\numberline {1}{\ignorespaces $(\mathaccentV {hat}05E{K}, \mathaccentV {hat}05E{\Delta })$ mean (blue dots) and standard deviation (blue bars) using proposed method (top) and Lopez' estimator (bottom) and true $(K, \Delta )$ pairs over the $KD > 2$ region (black boundary).\relax }}{3}{figure.caption.1}}
\newlabel{fig:kdplane}{{1}{3}{$(\hat {K}, \hat {\Delta })$ mean (blue dots) and standard deviation (blue bars) using proposed method (top) and Lopez' estimator (bottom) and true $(K, \Delta )$ pairs over the $KD > 2$ region (black boundary).\relax }{figure.caption.1}{}}
\@writefile{lof}{\contentsline {subfigure}{\numberline{(a)}{\ignorespaces {N = 1000}}}{3}{subfigure.1.1}}
\@writefile{lof}{\contentsline {subfigure}{\numberline{(b)}{\ignorespaces {N = 10000}}}{3}{subfigure.1.2}}
\@writefile{lof}{\contentsline {subfigure}{\numberline{(c)}{\ignorespaces {N = 100000}}}{3}{subfigure.1.3}}
\@writefile{lof}{\contentsline {subfigure}{\numberline{(d)}{\ignorespaces {N = 1000}}}{3}{subfigure.1.4}}
\@writefile{lof}{\contentsline {subfigure}{\numberline{(e)}{\ignorespaces {N = 10000}}}{3}{subfigure.1.5}}
\@writefile{lof}{\contentsline {subfigure}{\numberline{(f)}{\ignorespaces {N = 100000}}}{3}{subfigure.1.6}}
\@writefile{toc}{\contentsline {subsection}{\numberline {\unhbox \voidb@x \hbox {V-B}}Normalized Root Mean Square Error}{3}{subsection.5.2}}
\@writefile{toc}{\contentsline {section}{\numberline {VI}Conclusion}{3}{section.6}}
\@writefile{toc}{\contentsline {section}{Appendix: Cramer-Rao bound for TWDP envelope estimators}{3}{section*.3}}
\bibstyle{IEEEtran}
\bibdata{TWDP}
\bibcite{Durgin2002}{1}
\bibcite{Rao2015}{2}
\bibcite{Frolik2007}{3}
\bibcite{Lopez2016}{4}
\bibcite{Abdi2001}{5}
\bibcite{Greenstein1999}{6}
\newlabel{fig:nrmsek035}{{2a}{4}{Subfigure 2a}{subfigure.2.1}{}}
\newlabel{sub@fig:nrmsek035}{{(a)}{a}{Subfigure 2a\relax }{subfigure.2.1}{}}
\newlabel{fig:nrmsek065}{{2b}{4}{Subfigure 2b}{subfigure.2.2}{}}
\newlabel{sub@fig:nrmsek065}{{(b)}{b}{Subfigure 2b\relax }{subfigure.2.2}{}}
\newlabel{fig:nrmsek085}{{2c}{4}{Subfigure 2c}{subfigure.2.3}{}}
\newlabel{sub@fig:nrmsek085}{{(c)}{c}{Subfigure 2c\relax }{subfigure.2.3}{}}
\newlabel{fig:nrmsed0100}{{2d}{4}{Subfigure 2d}{subfigure.2.4}{}}
\newlabel{sub@fig:nrmsed0100}{{(d)}{d}{Subfigure 2d\relax }{subfigure.2.4}{}}
\newlabel{fig:nrmsed1000}{{2e}{4}{Subfigure 2e}{subfigure.2.5}{}}
\newlabel{sub@fig:nrmsed1000}{{(e)}{e}{Subfigure 2e\relax }{subfigure.2.5}{}}
\newlabel{fig:nrmsed4000}{{2f}{4}{Subfigure 2f}{subfigure.2.6}{}}
\newlabel{sub@fig:nrmsed4000}{{(f)}{f}{Subfigure 2f\relax }{subfigure.2.6}{}}
\@writefile{lof}{\contentsline {figure}{\numberline {2}{\ignorespaces $\mathaccentV {hat}05E{K}$ NRMSE for different $\Delta $ values (top) and $\mathaccentV {hat}05E{\Delta }$ NRMSE for different $K$ values (bottom). Different curves show different N sample sizes. Proposed simultaneous estimator (S) in solid line and Lopez' non-simultaneous (NS) estimator in dashed line.\relax }}{4}{figure.caption.2}}
\newlabel{fig:nrmse}{{2}{4}{$\hat {K}$ NRMSE for different $\Delta $ values (top) and $\hat {\Delta }$ NRMSE for different $K$ values (bottom). Different curves show different N sample sizes. Proposed simultaneous estimator (S) in solid line and Lopez' non-simultaneous (NS) estimator in dashed line.\relax }{figure.caption.2}{}}
\@writefile{lof}{\contentsline {subfigure}{\numberline{(a)}{\ignorespaces {$K$ parameter estimator, $\Delta = 0.35$}}}{4}{subfigure.2.1}}
\@writefile{lof}{\contentsline {subfigure}{\numberline{(b)}{\ignorespaces {$K$ parameter estimator, $\Delta = 0.6$}}}{4}{subfigure.2.2}}
\@writefile{lof}{\contentsline {subfigure}{\numberline{(c)}{\ignorespaces {$K$ parameter estimator, $\Delta = 0.85$}}}{4}{subfigure.2.3}}
\@writefile{lof}{\contentsline {subfigure}{\numberline{(d)}{\ignorespaces {$\Delta $ parameter estimator, $K = 1$}}}{4}{subfigure.2.4}}
\@writefile{lof}{\contentsline {subfigure}{\numberline{(e)}{\ignorespaces {$\Delta $ parameter estimator, $K = 10$}}}{4}{subfigure.2.5}}
\@writefile{lof}{\contentsline {subfigure}{\numberline{(f)}{\ignorespaces {$\Delta $ parameter estimator, $K = 40$}}}{4}{subfigure.2.6}}
\@writefile{toc}{\contentsline {section}{References}{4}{section*.4}}
